Example 2: Delayed treatment effect • npsurvSS
…
# Convert table to long format and re-label tests
table_4a <- gather(table_4a, "test", "power", 2:7) %>%
  mutate(test = recode(test, X2 = "wlogrank (1)",
                       X3 = "wlogrank (GB)",
                       X4 = "wlogrank (FH)",
                       X5 = "11-month surv diff",
                       X6 = "11-month rmst diff",
                       X7 = "median diff")) %>%
  as_tibble()
names(table_4a)[1] <- "tau1"

The resulting table looks like this:

table_4a
#> # A tibble: 72 × 3
#>     tau1 test         power
#>    <dbl> <chr>        <dbl>
#>  1   0   wlogrank (1) 0.915
#>  2   0.5 wlogrank (1) 0.912
#>  3   1   wlogrank (1) 0.912
#>  4   1.5 wlogrank (1) 0.913
#>  5   2   wlogrank (1) 0.917
#>  6   2.5 wlogrank (1) 0.924
#>  7   3   wlogrank (1) 0.934
#>  8   3.5 wlogrank (1) 0.946
#>  9   4   wlogrank (1) 0.959
#> 10   4.5 wlogrank (1) 0.974
#> # … with 62 more rows
#> # ℹ Use `print(n = ...)` to see more rows
…
